module_elek/A1_DC.csv

#Digilent WaveForms Oscilloscope Acquisition
#Device Name: Discovery2
#Serial Number: SN:210321AE070F
#Date Time: 2025-04-23 09:31:56.138
#Sample rate: 800000Hz
#Samples: 8192
#Trigger: Source: Channel 1 Type: Edge Condition: Rising Level: 0 V Hyst.: Auto HoldOff: 0 s
#Channel 1: Range: 5 V/div Offset: 0 V Sample Mode: Average
#Channel 2: Range: 500 mV/div Offset: 0 V Sample Mode: Average
#
#Time (s),Channel 1 (V),Channel 2 (V)
-0.00512,7.031935098497779,-0.00138334535060637
-0.00511875,7.031935098497779,-0.001717984887848285
-0.0051175,7.03193509849778,-0.001717984887848589
-0.00511625,7.035651460798463,-0.002387263962332115
-0.005115,7.031935098497779,-0.0020526244250902
-0.00511375,7.031935098497779,-0.0020526244250902
-0.0051125,7.031935098497779,-0.001717984887848285
-0.00511125,7.031935098497779,-0.002387263962331811
-0.00511,7.035651460798463,-0.0020526244250902
-0.00510875,7.035651460798465,-0.0020526244250902
-0.0051075,7.039367823099147,-0.0020526244250902
-0.00510625,7.039367823099145,-0.002387263962331963
-0.005105,7.035651460798463,-0.0020526244250902
-0.00510375,7.031935098497779,-0.001717984887848285
-0.0051025,7.035651460798463,-0.001717984887848285
-0.00510125,7.039367823099147,-0.001048705813364455
-0.0051,7.031935098497782,-0.001717984887847981
-0.00509875,7.039367823099147,-0.001717984887848285
-0.0050975,7.035651460798463,-0.001717984887848285
-0.00509625,7.035651460798463,-0.001717984887848285
-0.005095,7.039367823099145,-0.001717984887848437
-0.00509375,7.035651460798463,-0.0020526244250902
-0.0050925,7.031935098497779,-0.0020526244250902
-0.00509125,7.035651460798461,-0.001717984887848437
-0.00509,7.035651460798463,-0.0020526244250902
-0.00508875,7.035651460798463,-0.0020526244250902
-0.0050875,7.035651460798463,-0.0020526244250902
-0.00508625,7.035651460798461,-0.001717984887848285
-0.005085,7.031935098497779,-0.001717984887848285
-0.00508375,7.028218736197095,-0.00138334535060637
-0.0050825,7.028218736197095,-0.001717984887848285
-0.00508125,7.028218736197095,-0.0020526244250902
-0.00508,7.028218736197095,-0.0020526244250902
-0.00507875,7.028218736197095,-0.001717984887848285
-0.0050775,7.031935098497777,-0.002052624425090048
-0.00507625,7.031935098497779,-0.001717984887848285
-0.005075,7.03193509849778,-0.001717984887848437
-0.00507375,7.035651460798463,-0.0020526244250902
-0.0050725,7.035651460798463,-0.0020526244250902
-0.00507125,7.039367823099147,-0.0020526244250902
-0.00507,7.035651460798463,-0.002387263962332115
-0.00506875,7.035651460798463,-0.002721903499573878
-0.0050675,7.035651460798463,-0.002387263962332115
-0.00506625,7.03193509849778,-0.002387263962331963
-0.005065,7.035651460798463,-0.0020526244250902
-0.00506375,7.03193509849778,-0.001717984887848589
-0.0050625,7.035651460798463,-0.002387263962332115
-0.00506125,7.035651460798463,-0.001717984887848285
-0.00506,7.035651460798463,-0.001717984887848285
-0.00505875,7.035651460798463,-0.0020526244250902
-0.0050575,7.035651460798463,-0.001383345350606675
-0.00505625,7.035651460798463,-0.001717984887848285
-0.005055,7.028218736197097,-0.001717984887848285
-0.00505375,7.031935098497779,-0.001717984887848285
-0.0050525,7.035651460798465,-0.002052624425090353
-0.00505125,7.039367823099147,-0.002387263962332115
-0.00505,7.039367823099147,-0.001717984887848285
-0.00504875,7.035651460798465,-0.002052624425090048
-0.0050475,7.031935098497779,-0.0020526244250902
-0.00504625,7.028218736197097,-0.0020526244250902
-0.005045,7.031935098497779,-0.0020526244250902
-0.00504375,7.035651460798461,-0.001717984887848437
-0.0050425,7.031935098497779,-0.0020526244250902
-0.00504125,7.031935098497779,-0.002387263962332115
-0.00504,7.035651460798463,-0.002387263962332115
-0.00503875,7.031935098497779,-0.0020526244250902
-0.0050375,7.031935098497779,-0.002387263962331963
-0.00503625,7.035651460798463,-0.002387263962332115
-0.005035,7.03193509849778,-0.002052624425090353
-0.00503375,7.031935098497779,-0.0020526244250902
-0.0050325,7.035651460798465,-0.002052624425090353
-0.00503125,7.039367823099147,-0.002387263962332115
-0.00503,7.031935098497779,-0.001717984887848285
-0.00502875,7.031935098497779,-0.0020526244250902
-0.0050275,7.031935098497779,-0.00272190349957403
-0.00502625,7.035651460798461,-0.002387263962332267
-0.005025,7.039367823099147,-0.0020526244250902
-0.00502375,7.031935098497779,-0.001717984887848285
-0.0050225,7.031935098497779,-0.001717984887848285
-0.00502125,7.035651460798461,-0.001717984887848133
-0.00502,7.031935098497779,-0.00138334535060637
-0.00501875,7.031935098497779,-0.001717984887848285
-0.0050175,7.035651460798463,-0.0020526244250902
-0.00501625,7.031935098497779,-0.001717984887848285
-0.005015,7.028218736197097,-0.001717984887848285
-0.00501375,7.035651460798463,-0.001717984887848285
-0.0050125,7.031935098497782,-0.001717984887848437
-0.00501125,7.039367823099147,-0.0020526244250902
-0.00501,7.035651460798459,-0.0020526244250902
-0.00500875,7.028218736197095,-0.0020526244250902
-0.0050075,7.031935098497779,-0.001717984887848285
-0.00500625,7.031935098497779,-0.0020526244250902
-0.005005,7.031935098497779,-0.00272190349957403
-0.00500375,7.035651460798461,-0.002387263962332267
-0.0050025,7.031935098497779,-0.002387263962332115
-0.00500125,7.028218736197097,-0.002387263962331963
-0.005,7.031935098497779,-0.0020526244250902
-0.00499875,7.031935098497779,-0.0020526244250902
-0.0049975,7.035651460798463,-0.0020526244250902
-0.00499625,7.039367823099147,-0.001717984887848285
-0.004995,7.035651460798465,-0.002052624425090048
-0.00499375,7.035651460798463,-0.0020526244250902
-0.0049925,7.035651460798463,-0.0020526244250902
-0.00499125,7.031935098497779,-0.00138334535060637
-0.00499,7.028218736197097,-0.001717984887848285
-0.00498875,7.031935098497779,-0.001717984887848285
-0.0049875,7.035651460798463,-0.001717984887848285
-0.00498625,7.031935098497779,-0.002387263962332115
-0.004985,7.035651460798463,-0.002387263962332115
-0.00498375,7.043084185399827,-0.002052624425090353
-0.0049825,7.035651460798463,-0.002387263962332115
-0.00498125,7.0282187361971,-0.0020526244250902
-0.00498,7.039367823099147,-0.0020526244250902
-0.00497875,7.035651460798465,-0.0020526244250902
-0.0049775,7.039367823099147,-0.0020526244250902
-0.00497625,7.035651460798463,-0.002387263962332115
-0.004975,7.031935098497779,-0.0020526244250902
-0.00497375,7.039367823099147,-0.002387263962332115
-0.0049725,7.035651460798465,-0.002052624425090353
-0.00497125,7.031935098497779,-0.001717984887848285
-0.00497,7.035651460798461,-0.001717984887848285
-0.00496875,7.031935098497779,-0.001717984887848285
-0.0049675,7.03193509849778,-0.002052624425090353
-0.00496625,7.035651460798463,-0.002387263962332115
-0.004965,7.035651460798463,-0.002387263962332115
-0.00496375,7.035651460798463,-0.0020526244250902
-0.0049625,7.028218736197095,-0.0020526244250902
-0.00496125,7.031935098497777,-0.0020526244250902
-0.00496,7.035651460798463,-0.0020526244250902
-0.00495875,7.035651460798461,-0.0020526244250902
-0.0049575,7.031935098497779,-0.0020526244250902
-0.00495625,7.028218736197095,-0.001717984887848285
-0.004955,7.031935098497779,-0.001717984887848285
-0.00495375,7.031935098497779,-0.0020526244250902
-0.0049525,7.035651460798461,-0.0020526244250902
-0.00495125,7.035651460798463,-0.001717984887848285
-0.00495,7.039367823099145,-0.002052624425090048
-0.00494875,7.035651460798463,-0.001717984887848285
-0.0049475,7.031935098497777,-0.002052624425090048
-0.00494625,7.028218736197095,-0.001717984887848285
-0.004945,7.031935098497779,-0.001717984887848285
-0.00494375,7.031935098497779,-0.0020526244250902
-0.0049425,7.028218736197095,-0.0020526244250902
-0.00494125,7.031935098497777,-0.002387263962331963
-0.00494,7.031935098497779,-0.00272190349957403
-0.00493875,7.031935098497779,-0.002052624425090505
-0.0049375,7.028218736197095,-0.0020526244250902
-0.00493625,7.031935098497779,-0.002052624425090048
-0.004935,7.031935098497779,-0.001717984887848285
-0.00493375,7.035651460798463,-0.001717984887848285
-0.0049325,7.035651460798463,-0.001717984887848285
-0.00493125,7.031935098497779,-0.001717984887848285
-0.00493,7.028218736197097,-0.001717984887848285
-0.00492875,7.031935098497779,-0.0020526244250902
-0.0049275,7.028218736197099,-0.002387263962331811
-0.00492625,7.035651460798463,-0.001717984887848285
-0.004925,7.039367823099145,-0.001717984887848589
-0.00492375,7.035651460798463,-0.002387263962332115
-0.0049225,7.035651460798463,-0.002387263962332115
-0.00492125,7.035651460798463,-0.0020526244250902
-0.00492,7.035651460798463,-0.0020526244250902
-0.00491875,7.035651460798463,-0.002387263962331963
-0.0049175,7.035651460798463,-0.00272190349957403
-0.00491625,7.035651460798463,-0.002387263962331963
-0.004915,7.035651460798463,-0.0020526244250902
-0.00491375,7.035651460798463,-0.002387263962331811
-0.0049125,7.035651460798463,-0.001717984887848285
-0.00491125,7.035651460798463,-0.001717984887848285
-0.00491,7.039367823099145,-0.001383345350606522
-0.00490875,7.028218736197095,-0.00138334535060637
-0.0049075,7.028218736197095,-0.00138334535060637
-0.00490625,7.031935098497779,-0.00138334535060637
-0.004905,7.03193509849778,-0.001383345350606675
-0.00490375,7.035651460798463,-0.0020526244250902
-0.0049025,7.031935098497779,-0.0020526244250902
-0.00490125,7.031935098497779,-0.0020526244250902
-0.0049,7.028218736197095,-0.001717984887848285
-0.00489875,7.031935098497777,-0.002052624425090048
-0.0048975,7.031935098497779,-0.0020526244250902
-0.00489625,7.035651460798461,-0.0020526244250902
-0.004895,7.035651460798463,-0.001717984887848285
-0.00489375,7.035651460798463,-0.002387263962331811
-0.0048925,7.035651460798463,-0.001717984887848285
-0.00489125,7.028218736197095,-0.001717984887848285
-0.00489,7.035651460798463,-0.00138334535060637
-0.00488875,7.031935098497779,-0.0020526244250902
-0.0048875,7.035651460798461,-0.001717984887848437
-0.00488625,7.035651460798463,-0.00138334535060637
-0.004885,7.035651460798463,-0.002052624425090048
-0.00488375,7.035651460798463,-0.001717984887848285
-0.0048825,7.031935098497779,-0.001717984887848437
-0.00488125,7.031935098497779,-0.0020526244250902
-0.00488,7.031935098497779,-0.002387263962332115
-0.00487875,7.031935098497779,-0.001717984887848285
-0.0048775,7.035651460798463,-0.0020526244250902
-0.00487625,7.03193509849778,-0.002387263962331963
-0.004875,7.035651460798463,-0.00272190349957403
-0.00487375,7.035651460798461,-0.002721903499573726
-0.0048725,7.031935098497779,-0.0020526244250902
-0.00487125,7.028218736197095,-0.002387263962331963
-0.00487,7.028218736197095,-0.0020526244250902
-0.00486875,7.035651460798463,-0.001717984887848285
-0.0048675,7.03193509849778,-0.001717984887848285
-0.00486625,7.028218736197095,-0.001717984887848285
-0.004865,7.031935098497777,-0.001717984887848285
-0.00486375,7.031935098497779,-0.0020526244250902
-0.0048625,7.028218736197095,-0.0020526244250902
-0.00486125,7.028218736197095,-0.0020526244250902
-0.00486,7.031935098497779,-0.001717984887848285
-0.00485875,7.028218736197095,-0.001717984887848285
-0.0048575,7.028218736197095,-0.0020526244250902
-0.00485625,7.035651460798459,-0.001717984887848437
-0.004855,7.035651460798463,-0.0020526244250902
-0.00485375,7.035651460798463,-0.001717984887848437
-0.0048525,7.039367823099147,-0.001717984887848285
-0.00485125,7.031935098497779,-0.001717984887848589
-0.00485,7.031935098497779,-0.002387263962332115
-0.00484875,7.031935098497779,-0.001717984887848285
-0.0048475,7.031935098497779,-0.002387263962332115
-0.00484625,7.031935098497779,-0.002387263962332115
-0.004845,7.031935098497779,-0.002052624425090353
-0.00484375,7.031935098497779,-0.00138334535060637
-0.0048425,7.031935098497779,-0.001717984887848133
-0.00484125,7.031935098497779,-0.00138334535060637
-0.00484,7.031935098497779,-0.001717984887848589
-0.00483875,7.031935098497779,-0.002387263962332115
-0.0048375,7.031935098497779,-0.002387263962332115
-0.00483625,7.031935098497779,-0.0020526244250902
-0.004835,7.031935098497779,-0.001717984887848285
-0.00483375,7.031935098497779,-0.002387263962331811
-0.0048325,7.031935098497779,-0.002387263962332115
-0.00483125,7.035651460798461,-0.002052624425090505
-0.00483,7.031935098497779,-0.00272190349957403
-0.00482875,7.035651460798463,-0.002387263962331811
-0.0048275,7.035651460798463,-0.001717984887848285
-0.00482625,7.035651460798463,-0.001717984887848285
-0.004825,7.03193509849778,-0.001717984887848285
-0.00482375,7.035651460798463,-0.001717984887848285
-0.0048225,7.028218736197099,-0.001717984887848285
-0.00482125,7.031935098497779,-0.00138334535060637
-0.00482,7.031935098497779,-0.001717984887848437
-0.00481875,7.031935098497779,-0.0020526244250902
-0.0048175,7.035651460798463,-0.00138334535060637
-0.00481625,7.035651460798463,-0.001717984887848285
-0.004815,7.035651460798463,-0.001717984887848285
-0.00481375,7.03193509849778,-0.001717984887848285
-0.0048125,7.039367823099147,-0.0020526244250902
-0.00481125,7.031935098497782,-0.001717984887848437
-0.00481,7.035651460798463,-0.0020526244250902
-0.00480875,7.035651460798463,-0.001717984887848589
-0.0048075,7.035651460798463,-0.002387263962332115
-0.00480625,7.035651460798463,-0.0020526244250902
-0.004805,7.035651460798463,-0.0020526244250902
-0.00480375,7.039367823099147,-0.0020526244250902
-0.0048025,7.031935098497782,-0.0020526244250902
-0.00480125,7.031935098497779,-0.001717984887848285
-0.0048,7.039367823099147,-0.0020526244250902
-0.00479875,7.039367823099147,-0.0020526244250902
-0.0047975,7.035651460798463,-0.002387263962332115
-0.00479625,7.035651460798463,-0.002387263962332115
-0.004795,7.035651460798463,-0.002387263962332115
-0.00479375,7.039367823099147,-0.0020526244250902
-0.0047925,7.031935098497779,-0.002387263962332115
-0.00479125,7.031935098497779,-0.002387263962332115
-0.00479,7.031935098497779,-0.0020526244250902
-0.00478875,7.035651460798463,-0.001717984887848437
-0.0047875,7.035651460798463,-0.0020526244250902
-0.00478625,7.035651460798463,-0.002721903499573726
-0.004785,7.035651460798463,-0.0020526244250902
-0.00478375,7.035651460798463,-0.0020526244250902
-0.0047825,7.03193509849778,-0.002387263962331963
-0.00478125,7.035651460798463,-0.001717984887848285
-0.00478,7.035651460798463,-0.001383345350606522
-0.00477875,7.031935098497779,-0.00138334535060637
-0.0047775,7.035651460798459,-0.001717984887848285
-0.00477625,7.028218736197095,-0.001717984887848285
-0.004775,7.031935098497779,-0.00138334535060637
-0.00477375,7.031935098497779,-0.002387263962332115
-0.0047725,7.028218736197095,-0.002387263962332115
-0.00477125,7.031935098497777,-0.002052624425090353
-0.00477,7.031935098497779,-0.002387263962332115
-0.00476875,7.028218736197097,-0.002387263962332115
-0.0047675,7.031935098497779,-0.002387263962332115
-0.00476625,7.031935098497779,-0.002387263962331963
-0.004765,7.031935098497779,-0.0020526244250902
-0.00476375,7.031935098497779,-0.0020526244250902
-0.0047625,7.031935098497779,-0.0020526244250902
-0.00476125,7.035651460798463,-0.001717984887848285
-0.00476,7.039367823099145,-0.001717984887848285
-0.00475875,7.035651460798463,-0.00138334535060637
-0.0047575,7.031935098497779,-0.0020526244250902
-0.00475625,7.031935098497779,-0.0020526244250902
-0.004755,7.031935098497779,-0.002052624425090048
-0.00475375,7.031935098497779,-0.001717984887848285
-0.0047525,7.031935098497779,-0.0020526244250902
-0.00475125,7.028218736197095,-0.0020526244250902
-0.00475,7.028218736197095,-0.001717984887848285
-0.00474875,7.031935098497777,-0.002387263962331811
-0.0047475,7.031935098497779,-0.001717984887848285
-0.00474625,7.031935098497779,-0.002052624425090353
-0.004745,7.031935098497779,-0.002387263962332115
-0.00474375,7.031935098497779,-0.0020526244250902
-0.0047425,7.031935098497779,-0.0020526244250902
-0.00474125,7.039367823099147,-0.001717984887848285
-0.00474,7.039367823099147,-0.002052624425090048
-0.00473875,7.031935098497779,-0.001717984887848285
-0.0047375,7.031935098497779,-0.001383345350606522
-0.00473625,7.031935098497779,-0.0020526244250902
-0.004735,7.031935098497779,-0.00138334535060637
-0.00473375,7.031935098497779,-0.00138334535060637
-0.0047325,7.035651460798463,-0.001717984887848285
-0.00473125,7.031935098497779,-0.001717984887848285
-0.00473,7.035651460798463,-0.0020526244250902
-0.00472875,7.03193509849778,-0.001717984887848437
-0.0047275,7.039367823099147,-0.0020526244250902
-0.00472625,7.035651460798465,-0.002387263962331963
-0.004725,7.031935098497779,-0.002387263962332115
-0.00472375,7.031935098497779,-0.0020526244250902
-0.0047225,7.031935098497779,-0.0020526244250902
-0.00472125,7.031935098497779,-0.001717984887848285
-0.00472,7.039367823099147,-0.0020526244250902
-0.00471875,7.039367823099147,-0.002387263962332115
-0.0047175,7.031935098497782,-0.001383345350606827
-0.00471625,7.031935098497779,-0.0020526244250902
-0.004715,7.028218736197097,-0.002052624425090048
-0.00471375,7.031935098497779,-0.001717984887848285
-0.0047125,7.031935098497779,-0.00138334535060637
-0.00471125,7.031935098497779,-0.00138334535060637
-0.00471,7.035651460798463,-0.001717984887848285
-0.00470875,7.035651460798463,-0.0020526244250902
-0.0047075,7.031935098497779,-0.002387263962332115
-0.00470625,7.035651460798461,-0.002052624425090353
-0.004705,7.024502373896412,-0.001717984887848285
-0.00470375,7.03193509849778,-0.001717984887848437
-0.0047025,7.035651460798463,-0.0020526244250902
-0.00470125,7.03193509849778,-0.002721903499573878
-0.0047,7.035651460798463,-0.002387263962332115
-0.00469875,7.035651460798463,-0.001717984887848285
-0.0046975,7.039367823099145,-0.002052624425090048
-0.00469625,7.035651460798463,-0.001717984887848285
-0.004695,7.028218736197099,-0.001383345350606522
-0.00469375,7.031935098497779,-0.001717984887848285
-0.0046925,7.035651460798461,-0.001717984887848285
-0.00469125,7.031935098497779,-0.001717984887848285
-0.00469,7.031935098497779,-0.001717984887848285
-0.00468875,7.035651460798463,-0.0020526244250902
-0.0046875,7.028218736197095,-0.001717984887848285
-0.00468625,7.024502373896413,-0.002052624425090048
-0.004685,7.035651460798463,-0.002387263962332115
-0.00468375,7.03193509849778,-0.002387263962332115
-0.0046825,7.031935098497779,-0.002387263962332115
-0.00468125,7.03193509849778,-0.002387263962332115
-0.00468,7.035651460798463,-0.002387263962332115
-0.00467875,7.031935098497779,-0.0020526244250902
-0.0046775,7.028218736197095,-0.001717984887848285
-0.00467625,7.031935098497779,-0.0020526244250902
-0.004675,7.039367823099143,-0.0020526244250902
-0.00467375,7.035651460798463,-0.00138334535060637
-0.0046725,7.035651460798463,-0.001717984887848437
-0.00467125,7.035651460798463,-0.0020526244250902
-0.00467,7.031935098497779,-0.0020526244250902
-0.00466875,7.031935098497779,-0.0020526244250902
-0.0046675,7.028218736197095,-0.002387263962332115
-0.00466625,7.031935098497779,-0.002387263962332115
-0.004665,7.031935098497779,-0.002387263962332115
-0.00466375,7.028218736197097,-0.002387263962332115
-0.0046625,7.035651460798463,-0.0020526244250902
-0.00466125,7.031935098497779,-0.002052624425090353
-0.00466,7.031935098497779,-0.002387263962332115
-0.00465875,7.035651460798461,-0.0020526244250902
-0.0046575,7.031935098497779,-0.0020526244250902
-0.00465625,7.035651460798463,-0.0020526244250902
-0.004655,7.035651460798463,-0.0020526244250902
-0.00465375,7.035651460798463,-0.0020526244250902
-0.0046525,7.03193509849778,-0.0020526244250902
-0.00465125,7.031935098497779,-0.002387263962332115
-0.00465,7.035651460798461,-0.002387263962332115
-0.00464875,7.031935098497779,-0.002387263962332115
-0.0046475,7.031935098497779,-0.00138334535060637
-0.00464625,7.035651460798463,-0.001717984887848285
-0.004645,7.035651460798463,-0.0020526244250902
-0.00464375,7.035651460798463,-0.002387263962331963
-0.0046425,7.031935098497779,-0.002387263962332115
-0.00464125,7.035651460798461,-0.001717984887848589
-0.00464,7.031935098497779,-0.0020526244250902
-0.00463875,7.031935098497779,-0.002721903499573726
-0.0046375,7.031935098497779,-0.0020526244250902
-0.00463625,7.035651460798463,-0.002387263962332115
