module_elek/A3_1kHz.csv

#Digilent WaveForms Oscilloscope Acquisition
#Device Name: Discovery2
#Serial Number: SN:210321AE070F
#Date Time: 2025-04-30 10:11:35.613
#Sample rate: 1.5873e+06Hz
#Samples: 8192
#Trigger: Source: Channel 2 Type: Edge Condition: Rising Level: -2 mV Hyst.: Auto HoldOff: 0 s
#Channel 1: Range: 500 mV/div Offset: 0 V Sample Mode: Average
#Channel 2: Range: 500 mV/div Offset: 0 V Sample Mode: Average
#Wavegen Channel 1: Running
#Mode: Simple
#Type: Sine
#Frequency: 1 kHz
#Period: 1 ms
#Amplitude: 1 V
#Offset: 0 V
#Symmetry: 50 %
#Phase: 0 °

#Time (s),Channel 1 (V),Channel 2 (V)
-0.002580257647058823,0.7337536879129402,0.4821707859639608
-0.002579627647058824,0.7320656970623787,0.4801629487405102
-0.002578997647058824,0.7303777062118156,0.4761472742936063
-0.002578367647058823,0.7290273135313651,0.4724662393839436
-0.002577737647058824,0.7273393226808035,0.4687852044742842
-0.002577107647058824,0.7259889300003537,0.465438809101865
-0.002576477647058824,0.7239633409796798,0.4617577741922057
-0.002575847647058824,0.7229505464693416,0.4590806578942687
-0.002575217647058823,0.7209249574486669,0.4550649834473657
-0.002574587647058824,0.7188993684279931,0.4513839485377063
-0.002573957647058824,0.7172113775774298,0.4480375531652855
-0.002573327647058823,0.7158609848969792,0.4440218787183808
-0.002572697647058824,0.7141729940464178,0.4403408438087214
-0.002572067647058824,0.712147405025743,0.4376637275107861
-0.002571437647058823,0.7101218160050676,0.4343173321383654
-0.002570807647058824,0.7087714233246184,0.4309709367659478
-0.002570177647058824,0.7070834324740561,0.4272899018562867
-0.002569547647058824,0.7053954416234947,0.4232742274093856
-0.002568917647058824,0.7037074507729316,0.4192585529624808
-0.002568287647058823,0.7013442635821436,0.4159121575900599
-0.002567657647058824,0.6996562727315822,0.4122311226804006
-0.002567027647058824,0.6979682818810199,0.4078808086962556
-0.002566397647058823,0.6962802910304565,0.4045344133238347
-0.002565767647058824,0.6939171038396704,0.4005187388769335
-0.002565137647058824,0.6918915148189957,0.3968377039672725
-0.002564507647058824,0.6902035239684341,0.3934913085948548
-0.002563877647058824,0.6881779349477586,0.3904795527596761
-0.002563247647058823,0.6868275422673079,0.3867985178500133
-0.002562617647058824,0.6848019532466341,0.383117482940354
-0.002561987647058824,0.6824387660558469,0.378767168956209
-0.002561357647058823,0.680075578865059,0.3747514945093046
-0.002560727647058824,0.6787251861846099,0.3714050991368869
-0.002560097647058824,0.6766995971639351,0.3687279828389516
-0.002559467647058824,0.675349204483486,0.365381587466534
-0.002558837647058824,0.6733236154628106,0.3613659130196295
-0.002558207647058823,0.6706228301019109,0.3583541571844522
-0.002557577647058824,0.6685972410812362,0.3546731222747912
-0.002556947647058824,0.6669092502306739,0.3503228082906463
-0.002556317647058823,0.6655588575502231,0.3466417733809842
-0.002555687647058824,0.6635332685295493,0.3442992966202918
-0.002555057647058824,0.661845277678987,0.3406182617106308
-0.002554427647058824,0.6598196886583132,0.3366025872637296
-0.002553797647058824,0.6574565014675251,0.3329215523540667
-0.002553167647058823,0.6554309124468504,0.3285712383699218
-0.002552537647058824,0.6534053234261756,0.3245555639230188
-0.002551907647058824,0.6513797344055009,0.3208745290133578
-0.002551277647058823,0.6490165472147125,0.3175281336409366
-0.002550647647058824,0.6463157618538141,0.3131778196567938
-0.002550017647058824,0.6446277710032519,0.3098314242843746
-0.002549387647058824,0.642602181982578,0.3054811103002317
-0.002548757647058824,0.6405765929619024,0.3014654358533267
-0.002548127647058823,0.6382134057711152,0.2984536800181495
-0.002547497647058824,0.6358502185803291,0.2941033660340066
-0.002546867647058824,0.6341622277297657,0.2904223311243435
-0.002546237647058823,0.6324742368792022,0.2864066566774387
-0.002545607647058824,0.6301110496884162,0.2823909822305375
-0.002544977647058824,0.627747862497629,0.2780406682463927
-0.002544347647058824,0.6253846753068429,0.2753635519484586
-0.002543717647058824,0.6233590862861671,0.2720171565760382
-0.002543087647058823,0.6216710954356048,0.2676668425918933
-0.002542457647058824,0.6189703100747064,0.2636511681449921
-0.002541827647058824,0.6166071228839179,0.2589662146236035
-0.002541197647058823,0.6145815338632421,0.2552851797139406
-0.002540567647058824,0.612218346672456,0.2512695052670395
-0.002539937647058824,0.6101927576517813,0.2479231098946203
-0.002539307647058824,0.6074919722908829,0.2435727959104773
-0.002538677647058824,0.605466383270207,0.2408956796125401
-0.002538047647058823,0.6027655979093073,0.2365453656283952
-0.002537417647058824,0.6007400088886334,0.2331989702559776
-0.002536787647058824,0.5983768216978453,0.2288486562718312
-0.002536157647058823,0.5956760363369448,0.226171539973894
-0.002535527647058824,0.5936504473162709,0.2221558655269928
-0.002534897647058824,0.5916248582955962,0.2178055515428479
-0.002534267647058823,0.5892616711048079,0.2141245166331849
-0.002533637647058824,0.5868984839140219,0.209774202649042
-0.002533007647058824,0.5841976985531222,0.2054238886648971
-0.002532377647058824,0.5821721095324484,0.202746772366963
-0.002531747647058824,0.5794713241715478,0.1997350165317845
-0.002531117647058823,0.5774457351508719,0.1950500630103955
-0.002530487647058824,0.5750825479600858,0.190030469951769
-0.002529857647058824,0.5727193607692986,0.1866840745793498
-0.002529227647058823,0.5696809772382857,0.1823337605952037
-0.002528597647058824,0.5676553882176119,0.1796566442972696
-0.002527967647058824,0.5652922010268246,0.1753063303131248
-0.002527337647058824,0.5629290138360385,0.1719599349407071
-0.002526707647058824,0.5602282284751378,0.1679442604938026
-0.002526077647058823,0.5578650412843507,0.1632593069724158
-0.002525447647058824,0.555164255923451,0.1595782720627547
-0.002524817647058824,0.5524634705625513,0.1552279580786098
-0.002524187647058823,0.5501002833717632,0.1522162022434305
-0.002523557647058824,0.5480746943510894,0.1475312487220458
-0.002522927647058824,0.5453739089901898,0.1445194928868686
-0.002522297647058824,0.542335525459179,0.1401691789027256
-0.002521667647058824,0.5399723382683904,0.1364881439930626
-0.002521037647058823,0.5372715529074908,0.1324724695461596
-0.002520407647058824,0.5352459638868161,0.1291260741737404
-0.002519777647058824,0.5325451785259164,0.1247757601895956
-0.002519147647058823,0.5305195895052404,0.1207600857426903
-0.002518517647058824,0.5274812059742295,0.1157404926840639
-0.002517887647058824,0.5254556169535548,0.111390178699919
-0.002517257647058824,0.5224172334225441,0.1073745042530178
-0.002516627647058824,0.5197164480616431,0.1043627484178388
-0.002515997647058823,0.5170156627007434,0.1006817135081777
-0.002515367647058824,0.514314877339845,0.09666603906127655
-0.002514737647058824,0.5116140919789441,0.09298500415161365
-0.002514107647058823,0.5095885029582681,0.0889693297047084
-0.002513477647058824,0.5065501194272573,0.08394973664608195
-0.002512847647058824,0.5038493340663577,0.08026870173642088
-0.002512217647058824,0.5014861468755716,0.07792622497572856
-0.002511587647058824,0.4991229596847832,0.07424519006606642
-0.002510957647058823,0.4957469779836586,0.07022951561916344
-0.002510327647058824,0.4930461926227602,0.06520992256053698
-0.002509697647058824,0.4903454072618594,0.06119424811363173
-0.002509067647058823,0.4883198182411833,0.05717857366672739
-0.002508437647058824,0.4852814347101725,0.05416681783155151
-0.002507807647058824,0.4825806493492729,0.05015114338464854
-0.002507177647058824,0.4795422658182621,0.04580082940050562
-0.002506547647058824,0.477516676797586,0.04145051541635875
-0.002505917647058823,0.4748158914366864,0.03710020143221385
-0.002505287647058824,0.4721151060757879,0.03274988744807093
-0.002504657647058824,0.4687391243746622,0.02973813161289172
-0.002504027647058823,0.4663759371838738,0.02538781762874531
-0.002503397647058824,0.4636751518229753,0.02204142225632768
-0.002502767647058824,0.4609743664620757,0.01836038734666661
-0.002502137647058823,0.4579359829310622,0.01434471289976135
-0.002501507647058824,0.4548975994000515,0.00932511984113491
-0.002500877647058823,0.4525344122092643,0.005644084931473845
-0.002500247647058824,0.4494960286782536,0.002966968633539742
-0.002499617647058824,0.4467952433173525,-0.00138334535060637
-0.002498987647058823,0.4440944579564515,-0.006068298871994854
-0.002498357647058824,0.4410560744254408,-0.009749333781654245
-0.002497727647058824,0.4383552890645411,-0.01409964776579914
-0.002497097647058823,0.4359921018737524,-0.01878460128718732
-0.002496467647058824,0.4326161201726294,-0.02179635712236318
-0.002495837647058824,0.4295777366416173,-0.02648131064375
-0.002495207647058824,0.4268769512807188,-0.02982770601616762
-0.002494577647058824,0.424176165919818,-0.03417802000031404
-0.002493947647058823,0.4211377823888048,-0.03785905490997693
-0.002493317647058824,0.4187745951980187,-0.04187472935687808
-0.002492687647058824,0.4160738098371191,-0.04522112472929724
-0.002492057647058823,0.4126978281359934,-0.04890215963896012
-0.002491427647058824,0.4103346409452073,-0.05291783408586128
-0.002490797647058824,0.4072962574141952,-0.05726814807000617
-0.002490167647058824,0.4039202757130722,-0.06195310159139085
-0.002489537647058824,0.401219490352171,-0.06529949696381213
-0.002488907647058823,0.3985187049912713,-0.06898053187347319
-0.002488277647058824,0.3958179196303717,-0.07299620632037618
-0.002487647647058824,0.3927795360993596,-0.07701188076727916
-0.002487017647058823,0.3897411525683461,-0.08102755521418412
-0.002486387647058824,0.3867027690373354,-0.08537786919832703
-0.002485757647058824,0.3840019836764357,-0.0890589041079881
-0.002485127647058824,0.3813011983155373,-0.093409218092131
-0.002484497647058824,0.3779252166144115,-0.09642097392731022
-0.002483867647058823,0.3752244312535118,-0.101105927448697
-0.002483237647058824,0.3721860477224997,-0.1047869623583581
-0.002482607647058824,0.3688100660213752,-0.1088026368052611
-0.002481977647058823,0.3664468788305865,-0.11348759032665
-0.002481347647058824,0.3630708971294634,-0.1181725438480347
-0.002480717647058824,0.3600325135984513,-0.12084966014597
-0.002480087647058824,0.3569941300674406,-0.1241960555183876
-0.002479457647058824,0.3539557465364271,-0.1285463695025341
-0.002478827647058823,0.350917363005415,-0.1318927648749532
-0.002478197647058824,0.3482165776445166,-0.1369123579335796
-0.002477567647058824,0.3448405959433908,-0.1412626719177268
-0.002476937647058823,0.3421398105824896,-0.1442744277529054
-0.002476307647058824,0.3387638288813666,-0.1472861835880813
-0.002475677647058824,0.3353878471802421,-0.15230577664671
-0.002475047647058824,0.3326870618193436,-0.1563214510936112
-0.002474417647058824,0.3296486782883303,-0.1606717650777579
-0.002473787647058823,0.3269478929274307,-0.1650220790619028
-0.002473157647058824,0.3239095093964199,-0.169037753508804
-0.002472527647058824,0.3208711258654064,-0.1713802302694992
-0.002471897647058823,0.3171575459941678,-0.175395904716404
-0.002471267647058824,0.3137815642930449,-0.1794115791633051
-0.002470637647058824,0.3110807789321452,-0.1834272536102081
-0.002470007647058824,0.3083799935712468,-0.1871082885198675
-0.002469377647058824,0.3046664137000086,-0.1907893234295303
-0.002468747647058823,0.3019656283391089,-0.1938010792647075
-0.002468117647058824,0.2989272448080982,-0.1978167537116086
-0.002467487647058824,0.2962264594471972,-0.2025017072329973
-0.002466857647058823,0.2925128795759589,-0.2065173816799019
-0.002466227647058824,0.2898120942150605,-0.2101984165895613
-0.002465597647058824,0.2871113088541609,-0.2145487305737062
-0.002464967647058823,0.2840729253231471,-0.2188990445578523
-0.002464337647058824,0.2803593454519117,-0.2215761608557864
-0.002463707647058823,0.2773209619208996,-0.2255918353026894
-0.002463077647058824,0.273269783879552,-0.228938230675107
-0.002462447647058824,0.2705689985186505,-0.2332885446592535
-0.002461817647058823,0.2675306149876372,-0.237973498180642
-0.002461187647058824,0.2648298296267387,-0.2416545330903013
-0.002460557647058824,0.2621290442658391,-0.2453355679999624
-0.002459927647058823,0.2580778662244883,-0.2486819633723835
-0.002459297647058824,0.2550394826934775,-0.2530322773565264
-0.002458667647058824,0.251663500992353,-0.2570479518034294
-0.002458037647058824,0.2493003138015668,-0.2607289867130888
-0.002457407647058824,0.2459243321004412,-0.2644100216227515
-0.002456777647058823,0.2422107522292042,-0.2670871379206868
-0.002456147647058824,0.2395099668683045,-0.2714374519048318
-0.002455517647058824,0.2368091815074049,-0.2757877658889766
-0.002454887647058823,0.2330956016361664,-0.2798034403358814
-0.002454257647058824,0.2297196199350433,-0.2838191147827826
-0.002453627647058824,0.2266812364040312,-0.2881694287669275
-0.002452997647058824,0.2233052547029082,-0.2911811846021033
-0.002452367647058824,0.2199292730017821,-0.2941929404372819
-0.002451737647058823,0.21689088947077,-0.2972046962724592
-0.002451107647058824,0.2135149077696454,-0.3022242893310879
-0.002450477647058824,0.2108141224087458,-0.3055706847035071
-0.002449847647058823,0.2071005425375074,-0.3102556382248953
-0.002449217647058824,0.2040621590064967,-0.3132673940600711
-0.002448587647058824,0.201361373645597,-0.3159445103580064
-0.002447957647058824,0.197985391944474,-0.3196255452676658
-0.002447327647058824,0.1949470084134604,-0.3233065801773286
-0.002446697647058823,0.1915710267123358,-0.3276568941614735
-0.002446067647058824,0.1888702413514374,-0.3320072081456164
-0.002445437647058824,0.185831857820424,-0.3363575221297633
-0.002444807647058823,0.1824558761192978,-0.3393692779649422
-0.002444177647058824,0.1787422962480625,-0.3430503128746015
-0.002443547647058824,0.1750287163768254,-0.3470659873215045
-0.002442917647058824,0.1719903328458147,-0.3517509408428892
-0.002442287647058824,0.1686143511446888,-0.3554319757525524
-0.002441657647058823,0.1649007712734518,-0.3587783711249716
-0.002441027647058824,0.1621999859125533,-0.3611208478856639
-0.002440397647058824,0.1588240042114276,-0.3651365223325679
-0.002439767647058823,0.1554480225103015,-0.3688175572422309
-0.002439137647058824,0.1520720408091784,-0.372833231689132
-0.002438507647058824,0.1486960591080539,-0.3771835456732769
-0.002437877647058824,0.1453200774069308,-0.381199220120178
-0.002437247647058824,0.1426192920460297,-0.384545615492599
-0.002436617647058823,0.1389057121747926,-0.3872227317905343
-0.002435987647058824,0.1362049268138942,-0.3912384062374355
-0.002435357647058824,0.1328289451127684,-0.3949194411470984
-0.002434727647058823,0.1291153652415302,-0.3992697551312453
-0.002434097647058824,0.1264145798806318,-0.4036200691153882
-0.002433467647058824,0.1227010000093948,-0.4059625458760815
-0.002432837647058823,0.1193250183082687,-0.4083050226367771
-0.002432207647058824,0.1159490366071456,-0.4129899761581618
-0.002431577647058823,0.1125730549060211,-0.4170056506050648
-0.002430947647058824,0.1098722695451227,-0.4210213250519659
-0.002430317647058824,0.1064962878439969,-0.4243677204243869
-0.002429687647058823,0.1031203061428709,-0.4280487553340488
-0.002429057647058824,0.1000819226118602,-0.4300565925574995
-0.002428427647058824,0.09670594091073564,-0.4334029879299186
-0.002427797647058823,0.09299236103949726,-0.4370840228395811
-0.002427167647058824,0.08995397750848655,-0.4404304182119988
-0.002426537647058824,0.08624039763724953,-0.4444460926589018
-0.002425907647058824,0.08286441593612649,-0.4491310461802865
-0.002425277647058824,0.07982603240511285,-0.4521428020154659
-0.002424647647058823,0.07678764887409921,-0.4554891973878867
-0.002424017647058824,0.0734116671729762,-0.4591702322975461
-0.002423387647058824,0.07071088181207655,-0.4628512672072071
-0.002422757647058823,0.06665970377072586,-0.4655283835051442
-0.002422127647058824,0.06395891840982743,-0.4695440579520454
-0.002421497647058824,0.06058293670870286,-0.4732250928617065
-0.002420867647058824,0.05754455317769214,-0.4762368486968823
-0.002420237647058824,0.05450616964667866,-0.4799178836065448
-0.002419607647058823,0.05146778611566655,-0.4842681975906897
-0.002418977647058824,0.04741660807431708,-0.4879492325003507
-0.002418347647058824,0.04370302820308006,-0.4912956278727699
-0.002417717647058823,0.04066464467206627,-0.494976662782432
-0.002417087647058824,0.03695106480083094,-0.4973191395431243
-0.002416457647058824,0.03357508309970638,-0.5013348139900273
-0.002415827647058824,0.03087429773880796,-0.504681209362445
-0.002415197647058824,0.02716071786756972,-0.5080276047348656
-0.002414567647058823,0.02412233433655761,-0.5113740001072848
-0.002413937647058824,0.0204087544653206,-0.5153896745541877
-0.002413307647058824,0.01669517459408358,-0.518066790852123
-0.002412677647058823,0.01365679106306994,-0.5210785466873019
-0.002412047647058824,0.01028080936194692,-0.5244249420597195
-0.002411417647058824,0.007242425830934813,-0.5281059769693806
-0.002410787647058824,0.003528845959699486,-0.5314523723417981
-0.002410157647058824,0.0004904624286856935,-0.5351334072514607
-0.002409527647058823,-0.002885519272438867,-0.538145163086638
-0.002408897647058824,-0.006599099143674194,-0.5404876398473303
-0.002408267647058824,-0.00929988450457553,-0.5441686747569925
-0.002407637647058823,-0.01267586620570178,-0.548184349203897
-0.002407007647058824,-0.01638944607693711,-0.5515307445763146
-0.002406377647058824,-0.01976542777806167,-0.5548771399487338
-0.002405747647058824,-0.02280381130907239,-0.5585581748583931
-0.002405117647058824,-0.02617979301019833,-0.5609006516190882
-0.002404487647058823,-0.02888057837109798,-0.5642470469915074
-0.002403857647058824,-0.032256560072221,-0.5675934423639249
-0.002403227647058824,-0.0356325417733471,-0.5702705586618618
-0.002402597647058823,-0.03900852347447319,-0.5739515935715246
-0.002401967647058824,-0.04238450517559622,-0.5776326284811839
-0.002401337647058824,-0.04576048687672078,-0.5806443843163612
-0.002400707647058824,-0.0487988704077315,-0.5836561401515371
-0.002400077647058824,-0.05217485210885744,-0.5873371750611995
-0.002399447647058823,-0.05521323563986955,-0.5900142913591349
-0.002398817647058824,-0.05858921734099257,-0.5933606867315524
-0.002398187647058824,-0.06196519904211867,-0.5967070821039732
-0.002397557647058823,-0.06500358257313231,-0.6000534774763936
-0.002396927647058824,-0.06837956427425534,-0.6030652333115695
-0.002396297647058824,-0.07175554597537989,-0.6057423496095048
-0.002395667647058823,-0.07479392950639369,-0.6094233845191674
-0.002395037647058824,-0.07850750937762901,-0.612769779891585
-0.002394407647058823,-0.08154589290864112,-0.6154468961895203
-0.002393777647058824,-0.08559707094998874,-0.618793291561938
-0.002393147647058824,-0.08897305265111516,-0.6218050473971167
-0.002392517647058823,-0.09167383801201601,-0.6251514427695375
-0.002391887647058824,-0.09437462337291444,-0.628497838141955
-0.002391257647058824,-0.09808820324415146,-0.6315095939771322
-0.002390627647058823,-0.1014641849452777,-0.6345213498123107
-0.002389997647058824,-0.105177764816513,-0.6371984661102448
-0.002389367647058824,-0.1085537465176376,-0.6398755824081801
-0.002388737647058824,-0.1115921300486483,-0.6432219777805978
-0.002388107647058824,-0.1149681117497743,-0.6465683731530184
-0.002387477647058823,-0.1183440934509004,-0.6489108499137134
-0.002386847647058824,-0.1217200751520234,-0.652257245286131
-0.002386217647058824,-0.1247584586830355,-0.6549343615840664
-0.002385587647058823,-0.1281344403841616,-0.6569421988075194
-0.002384957647058824,-0.1315104220852846,-0.6602885941799369
-0.002384327647058824,-0.1348864037864092,-0.6633003500151142
-0.002383697647058824,-0.1382623854875322,-0.6669813849247735
-0.002383067647058824,-0.1413007690185459,-0.6703277802971944
-0.002382437647058823,-0.1446767507196704,-0.6733395361323716
-0.002381807647058824,-0.1473775360805701,-0.6763512919675488
-0.002381177647058824,-0.1507535177816946,-0.6783591291910004
-0.002380547647058823,-0.1537919013127081,-0.6817055245634208
