module_elek/A3_sq1kHz.csv

#Digilent WaveForms Oscilloscope Acquisition
#Device Name: Discovery2
#Serial Number: SN:210321B282AD
#Date Time: 2025-05-01 13:09:37.891
#Sample rate: 2.77778e+06Hz
#Samples: 8192
#Trigger: Source: Channel 1 Type: Edge Condition: Rising Level: 0 V Hyst.: Auto HoldOff: 0 s
#Channel 1: Range: 500 mV/div Offset: 0 V Sample Mode: Average
#Channel 2: Range: 500 mV/div Offset: 0 V Sample Mode: Average
#Wavegen Channel 1: Running
#Mode: Simple
#Type: Square
#Frequency: 1 kHz
#Period: 1 ms
#Amplitude: 1 V
#Offset: 0 V
#Symmetry: 50 %
#Phase: 0 °

#Time (s),Channel 1 (V),Channel 2 (V)
-0.001474520035810206,-0.9954029114770586,0.5414422272627447
-0.001474160035810206,-0.9943932361587001,0.5360296237009571
-0.001473800035810206,-0.9950663530376058,0.5306170201391696
-0.001473440035810206,-0.9947297945981529,0.5241895534095468
-0.001473080035810206,-0.9943932361587001,0.5187769498477591
-0.001472720035810206,-0.9940566777192473,0.5137026340085832
-0.001472360035810206,-0.9933835608403425,0.5082900304467936
-0.001472000035810206,-0.9954029114770577,0.5035540023302336
-0.001471640035810206,-0.9947297945981529,0.4988179742136672
-0.001471280035810206,-0.9954029114770586,0.4940819460971031
-0.001470920035810206,-0.9950663530376058,0.4893459179805389
-0.001470560035810206,-0.9954029114770586,0.4835950266961396
-0.001470200035810206,-0.9954029114770586,0.4778441354117403
-0.001469840035810206,-0.9954029114770583,0.4720932441273386
-0.001469480035810206,-0.9947297945981532,0.4670189282881674
-0.001469120035810206,-0.9943932361587001,0.4616063247263774
-0.001468760035810206,-0.9957394699165115,0.4575468720550367
-0.001468400035810206,-0.9950663530376058,0.4521342684932491
-0.001468040035810206,-0.99674914523487,0.447398240376685
-0.001467680035810206,-0.9970857036743229,0.4406324859244504
-0.001467320035810206,-0.9954029114770585,0.4358964578078841
-0.001466960035810206,-0.9950663530376059,0.4311604296913243
-0.001466600035810206,-0.9954029114770586,0.4260861138521462
-0.001466240035810206,-0.9950663530376058,0.4223649489034172
-0.001465880035810206,-0.9940566777192473,0.4176289207868531
-0.001465520035810206,-0.9943932361587001,0.4128928926702889
-0.001465160035810206,-0.9960760283559643,0.4071420013858896
-0.001464800035810206,-0.9977588205532282,0.4020676855467115
-0.001464440035810206,-0.9970857036743233,0.3973316574301517
-0.001464080035810206,-0.9977588205532285,0.3925956293135854
-0.001463720035810206,-0.9950663530376058,0.3871830257517977
-0.001463360035810206,-0.9947297945981529,0.3827852853578453
-0.001463000035810206,-0.9947297945981529,0.3773726817960577
-0.001462640035810206,-0.9957394699165115,0.3726366536794936
-0.001462280035810206,-0.9964125867954172,0.3675623378403177
-0.001461920035810206,-0.9967491452348699,0.3631645974463673
-0.001461560035810206,-0.9960760283559643,0.3577519938845776
-0.001461200035810206,-0.9954029114770586,0.3536925412132369
-0.001460840035810206,-0.9943932361587001,0.3489565130966727
-0.001460480035810206,-0.9940566777192473,0.3435439095348851
-0.001460120035810206,-0.9943932361587001,0.3384695936957093
-0.001459760035810206,-0.9933835608403416,0.3337335655791451
-0.001459400035810206,-0.9960760283559631,0.3296741129078062
-0.001459040035810206,-0.9943932361587001,0.3273060988495223
-0.001458680035810206,-0.9937201192797944,0.321555207565123
-0.001458320035810206,-0.9954029114770586,0.3164808917259471
-0.001457960035810206,-0.9964125867954172,0.3117448636093829
-0.001457600035810206,-0.9950663530376058,0.306670547770207
-0.001457240035810206,-0.9970857036743229,0.302949382821478
-0.001456880035810206,-0.9964125867954168,0.2971984915370766
-0.001456520035810206,-0.9954029114770586,0.2924624634205146
-0.001456160035810206,-0.9957394699165115,0.2877264353039504
-0.001455800035810206,-0.9970857036743229,0.283328694909998
-0.001455440035810206,-0.9957394699165115,0.2789309545160455
-0.001455080035810206,-0.9954029114770586,0.2745332141220931
-0.001454720035810206,-0.9974222621137757,0.2701354737281407
-0.001454360035810206,-0.997422262113775,0.2667525965020213
-0.001454000035810206,-0.996076028355965,0.2620165683854614
-0.001453640035810206,-0.9947297945981529,0.2559273893784482
-0.001453280035810206,-0.99674914523487,0.2528827998749427
-0.001452920035810206,-0.9964125867954172,0.2471319085905433
-0.001452560035810206,-0.9964125867954172,0.2437490313644261
-0.001452200035810206,-0.9974222621137757,0.2396895786930854
-0.001451840035810206,-0.9980953789926813,0.236644989189578
-0.001451480035810206,-0.9977588205532286,0.232585536518241
-0.001451120035810206,-0.9970857036743229,0.2264963575112281
-0.001450760035810206,-0.9964125867954172,0.2210837539494405
-0.001450400035810206,-0.9970857036743229,0.2183774521685466
-0.001450040035810206,-0.9977588205532285,0.2146562872198177
-0.001449680035810206,-0.9970857036743229,0.2095819713806418
-0.001449320035810206,-0.997422262113775,0.2055225187092985
-0.001448960035810206,-0.996076028355965,0.1997716274249043
-0.001448600035810206,-0.9960760283559643,0.1963887501987845
-0.001448240035810206,-0.9950663530376058,0.1916527220822203
-0.001447880035810206,-0.9950663530376058,0.1886081325787148
-0.001447520035810206,-0.9950663530376058,0.1852252553525975
-0.001447160035810206,-0.9950663530376058,0.1794743640681982
-0.001446800035810206,-0.9970857036743234,0.1750766236742442
-0.001446440035810206,-0.998095378992681,0.17169374644813
-0.001446080035810206,-0.9960760283559643,0.1672960060541761
-0.001445720035810206,-0.9964125867954172,0.1628982656602236
-0.001445360035810206,-0.9984319374321342,0.1585005252662712
-0.001445000035810206,-0.9957394699165115,0.1547793603175422
-0.001444640035810206,-0.9964125867954172,0.1517347708140367
-0.001444280035810206,-0.9960760283559646,0.1466604549748586
-0.001443920035810206,-0.9967491452348697,0.1419244268582988
-0.001443560035810206,-0.9977588205532285,0.1388798373547911
-0.001443200035810206,-0.9991050543110399,0.1358352478512856
-0.001442840035810206,-0.9980953789926814,0.1314375074573332
-0.001442480035810206,-0.99674914523487,0.1273780547859924
-0.001442120035810206,-0.9970857036743229,0.12298031439204
-0.001441760035810206,-0.9950663530376062,0.1195974371659207
-0.001441400035810206,-0.9957394699165112,0.1151996967719723
-0.001441040035810206,-0.9977588205532285,0.1111402441006296
-0.001440680035810206,-0.9977588205532285,0.1077573668745123
-0.001440320035810206,-0.9984319374321342,0.1036979142031716
-0.001439960035810206,-0.9974222621137757,0.09997674925444264
-0.001439600035810206,-0.9957394699165115,0.09490243341526676
-0.001439240035810206,-0.9977588205532285,0.09219613163437294
-0.001438880035810206,-0.9980953789926813,0.08847496668564567
-0.001438520035810206,-0.9977588205532285,0.08441551401430326
-0.001438160035810206,-0.9980953789926814,0.08001777362035083
-0.001437800035810206,-0.9970857036743229,0.07562003322639839
-0.001437440035810206,-0.9980953789926814,0.07223715600028113
-0.001437080035810206,-0.9984319374321342,0.06885427877416388
-0.001436720035810206,-0.9984319374321342,0.06479482610282317
-0.001436360035810206,-0.9967491452348697,0.06208852432192752
-0.001436000035810206,-0.9960760283559643,0.05802907165058865
-0.001435640035810206,-0.9970857036743229,0.05396961897924794
-0.001435280035810206,-0.9964125867954172,0.05058674175313069
-0.001434920035810206,-0.9970857036743229,0.04585071363656654
-0.001434560035810206,-0.9977588205532285,0.04212954868783755
-0.001434200035810206,-0.99674914523487,0.0387466714617203
-0.001433840035810206,-0.9977588205532282,0.03468721879037851
-0.001433480035810206,-0.9970857036743233,0.03231920473209857
-0.001433120035810206,-0.9964125867954172,0.02893632750598025
-0.001432760035810206,-0.9960760283559643,0.02589173800247472
-0.001432400035810206,-0.9974222621137757,0.02149399760852228
-0.001432040035810206,-0.99674914523487,0.01743454493718157
-0.001431680035810206,-0.9977588205532285,0.01438995543367604
-0.001431320035810206,-0.9994416127504928,0.01134536593016882
-0.001430960035810206,-0.9994416127504928,0.007624200981443218
-0.001430600035810206,-0.9980953789926814,0.003903036032712543
-0.001430240035810206,-0.9980953789926814,0.0008584465292070112
-0.001429880035810206,-0.9980953789926814,-0.004215869309968874
-0.001429520035810206,-0.9984319374321342,-0.007260458813474406
-0.001429160035810206,-0.9991050543110399,-0.008951897426533035
-0.001428800035810206,-0.9984319374321339,-0.01368792554309873
-0.001428440035810206,-0.9977588205532288,-0.01707080276921292
-0.001428080035810206,-0.9960760283559643,-0.02146854316316689
-0.001427720035810206,-0.9977588205532285,-0.02518970811189587
-0.001427360035810206,-0.9987684958715871,-0.02891087306062485
-0.001427000035810206,-0.9960760283559643,-0.03060231167368348
-0.001426640035810206,-0.99674914523487,-0.03432347662241246
-0.001426280035810206,-0.9974222621137762,-0.03804464157114329
-0.001425920035810206,-0.9984319374321338,-0.04210409424248031
-0.001425560035810206,-0.9974222621137757,-0.04447210830076423
-0.001425200035810206,-0.9987684958715871,-0.04853156097210494
-0.001424840035810206,-0.9987684958715871,-0.05225272592083392
-0.001424480035810206,-0.9994416127504928,-0.05495902770172773
-0.001424120035810206,-0.9994416127504928,-0.058341904927845
-0.001423760035810206,-0.9991050543110402,-0.06138649443135237
-0.001423400035810206,-0.9997781711899453,-0.06544594710268939
-0.001423040035810206,-0.9977588205532285,-0.06916711205142022
-0.001422680035810206,-0.9970857036743229,-0.07153512610970229
-0.001422320035810206,-0.9974222621137757,-0.07525629105843128
-0.001421960035810206,-0.9987684958715871,-0.07796259283932508
-0.001421600035810206,-0.9984319374321342,-0.08168375778805406
-0.001421240035810206,-0.9967491452348705,-0.08472834729156098
-0.001420880035810206,-0.9977588205532281,-0.08777293679506375
-0.001420520035810206,-0.9980953789926814,-0.09014095085334721
-0.001420160035810206,-0.9974222621137757,-0.09420040352468792
-0.001419800035810206,-0.9987684958715871,-0.09656841758297
-0.001419440035810206,-0.9987684958715871,-0.1009661579769224
-0.001419080035810206,-1.000451288068851,-0.1029958843125928
-0.001418720035810206,-1.000451288068851,-0.10637876153871
-0.001418360035810206,-0.9987684958715879,-0.1104382142100489
-0.001418000035810206,-0.9987684958715871,-0.1131445159909446
-0.001417640035810206,-0.9997781711899456,-0.1155125300492266
-0.001417280035810206,-0.9994416127504928,-0.1178805441075087
-0.001416920035810206,-0.9991050543110399,-0.1232931476692963
-0.001416560035810206,-0.9977588205532285,-0.1259994494501901
-0.001416200035810206,-0.9977588205532285,-0.1280291757858605
-0.001415840035810206,-0.9991050543110396,-0.1310737652893671
-0.001415480035810206,-0.9984319374321342,-0.1334417793476481
-0.001415120035810206,-0.9974222621137757,-0.1375012320189888
-0.001414760035810206,-0.9984319374321342,-0.1418989724129412
-0.001414400035810206,-0.9970857036743229,-0.1456201373616702
-0.001414040035810206,-0.99674914523487,-0.1476498636973406
-0.001413680035810206,-0.9964125867954172,-0.1496795900330109
-0.001413320035810206,-0.9994416127504931,-0.1527241795365174
-0.001412960035810206,-1.000114729629398,-0.1547539058721868
-0.001412600035810206,-1.000451288068851,-0.1588133585435275
-0.001412240035810206,-1.000451288068851,-0.1615196603244213
-0.001411880035810206,-0.9987684958715871,-0.1645642498279269
-0.001411520035810206,-0.9987684958715871,-0.1672705516088207
-0.001411160035810206,-0.9997781711899456,-0.1703151411123262
-0.001410800035810206,-0.9997781711899457,-0.1733597306158331
-0.001410440035810206,-1.000114729629398,-0.1764043201193359
-0.001410080035810206,-0.9987684958715871,-0.1791106219002311
-0.001409720035810206,-0.9974222621137757,-0.1835083622941835
-0.001409360035810206,-0.9974222621137757,-0.1858763763524656
-0.001409000035810206,-0.99674914523487,-0.1882443904107476
-0.001408640035810206,-0.9991050543110399,-0.1899358290238063
-0.001408280035810206,-0.9987684958715872,-0.1923038430820904
-0.001407920035810206,-0.9991050543110398,-0.1967015834760388
-0.001407560035810206,-0.9991050543110399,-0.1997461729795463
-0.001407200035810206,-0.9987684958715871,-0.2021141870378284
-0.001406840035810206,-1.001124404947757,-0.2041439133734988
-0.001406480035810206,-1.002134080266115,-0.2054970642639457
-0.001406120035810206,-0.9997781711899456,-0.2109096678257333
-0.001405760035810206,-0.9984319374321343,-0.2122628187161816
-0.001405400035810206,-0.998768495871587,-0.2153074082196843
-0.001405040035810206,-0.9997781711899456,-0.2183519977231912
-0.001404680035810206,-0.9987684958715871,-0.2217348749493085
-0.001404320035810206,-0.9994416127504928,-0.2241028890075906
-0.001403960035810206,-1.000114729629398,-0.2264709030658727
-0.001403600035810206,-0.9984319374321342,-0.2291772048467665
-0.001403240035810206,-0.9987684958715876,-0.2315452189050499
-0.001402880035810206,-0.9997781711899452,-0.2345898084085527
-0.001402520035810206,-0.9991050543110399,-0.2379726856346713
-0.001402160035810206,-1.000451288068851,-0.2410172751381769
-0.001401800035810206,-0.9994416127504928,-0.2437235769190707
-0.001401440035810206,-0.9984319374321342,-0.2450767278095176
-0.001401080035810206,-1.00146096338721,-0.2474447418677997
-0.001400720035810206,-1.001797521826661,-0.2511659068165293
-0.001400360035810206,-0.9994416127504939,-0.252519057706975
-0.001400000035810206,-0.9991050543110399,-0.2559019349330928
-0.001399640035810206,-1.001124404947757,-0.2596230998818218
-0.001399280035810206,-1.000451288068851,-0.2613145384948805
-0.001398920035810206,-1.000114729629398,-0.263005977107939
-0.001398560035810206,-1.000787846508304,-0.2660505666114446
-0.001398200035810206,-0.9997781711899456,-0.2694334438375626
-0.001397840035810206,-0.9997781711899456,-0.2711248824506197
-0.001397480035810206,-0.9994416127504928,-0.2731546087862908
-0.001397120035810206,-0.9954029114770586,-0.2768757737350198
-0.001396760035810206,-0.9960760283559643,-0.2792437877933019
-0.001396400035810206,-0.9980953789926814,-0.2809352264063605
-0.001396040035810206,-0.9994416127504928,-0.2849946790777012
-0.001395680035810206,-0.9991050543110399,-0.2860095422455364
-0.001395320035810206,-0.9991050543110399,-0.288715844026429
-0.001394960035810206,-1.000114729629398,-0.2920987212525475
-0.001394600035810206,-1.000787846508304,-0.2941284475882178
-0.001394240035810206,-1.000787846508304,-0.2971730370917234
-0.001393880035810206,-1.001124404947757,-0.2992027634273937
-0.001393520035810206,-1.001124404947757,-0.3015707774856758
-0.001393160035810206,-1.002134080266115,-0.3032622160987344
-0.001392800035810206,-1.001797521826662,-0.3069833810474646
-0.001392440035810206,-0.9997781711899456,-0.3096896828283572
-0.001392080035810206,-1.001124404947757,-0.3113811214414158
-0.001391720035810206,-0.9997781711899456,-0.3134108477770862
-0.001391360035810206,-0.9994416127504928,-0.3164554372805917
-0.001391000035810206,-0.9997781711899456,-0.3184851636162621
-0.001390640035810206,-0.9991050543110399,-0.3208531776745442
-0.001390280035810206,-1.000114729629398,-0.322544616287604
-0.001389920035810206,-0.9987684958715878,-0.3252509180684954
-0.001389560035810206,-0.9980953789926814,-0.3276189321267787
-0.001389200035810206,-0.9994416127504928,-0.3299869461850607
-0.001388840035810206,-1.000451288068851,-0.3320166725207311
-0.001388480035810206,-0.9994416127504928,-0.3347229743016249
-0.001388120035810206,-0.9987684958715871,-0.337090988359907
-0.001387760035810206,-0.9987684958715878,-0.3394590024181898
-0.001387400035810206,-1.000114729629398,-0.3411504410312469
-0.001387040035810206,-1.000787846508304,-0.3425035919216946
-0.001386680035810206,-1.000451288068851,-0.3472396200382588
-0.001386320035810206,-1.000114729629398,-0.3496076340965408
-0.001385960035810206,-1.000787846508304,-0.3523139358774346
-0.001385600035810206,-1.001797521826663,-0.3540053744904933
-0.001385240035810206,-1.001460963387209,-0.3563733885487758
-0.001384880035810206,-1.000451288068852,-0.3573882517166101
-0.001384520035810206,-0.9997781711899456,-0.3594179780522809
-0.001384160035810206,-0.9987684958715871,-0.3624625675557864
-0.001383800035810206,-0.9994416127504928,-0.3648305816140685
-0.001383440035810206,-1.001124404947757,-0.3665220202271272
-0.001383080035810206,-1.001797521826663,-0.3682134588401857
-0.001382720035810206,-0.9994416127504928,-0.3715963360663036
-0.001382360035810206,-0.9994416127504928,-0.3729494869567493
-0.001382000035810206,-0.9994416127504928,-0.3736260624019734
-0.001381640035810206,-1.000451288068851,-0.3759940764602555
-0.001381280035810206,-0.9991050543110399,-0.3793769536863727
-0.001380920035810206,-0.9991050543110399,-0.3824215431898783
-0.001380560035810206,-1.000451288068851,-0.3841129818029368
-0.001380200035810206,-0.9997781711899465,-0.387157571306443
-0.001379840035810206,-1.001797521826662,-0.3885107221968887
-0.001379480035810206,-1.00146096338721,-0.3918935994230066
-0.001379120035810206,-1.001124404947757,-0.3929084625908417
-0.001378760035810206,-1.001124404947757,-0.3956147643717355
-0.001378400035810206,-1.001124404947757,-0.3976444907074059
-0.001378040035810206,-1.001797521826663,-0.3996742170430763
-0.001377680035810206,-1.000451288068851,-0.4010273679335244
-0.001377320035810206,-1.000114729629399,-0.4037336697144158
-0.001376960035810206,-0.9997781711899456,-0.4057633960500873
-0.001376600035810206,-0.9991050543110399,-0.4071165469405342
-0.001376240035810206,-0.9980953789926814,-0.4091462732762046
-0.001375880035810206,-1.000114729629398,-0.4115142873344866
-0.001375520035810206,-1.000114729629398,-0.4128674382249335
-0.001375160035810206,-0.9991050543110399,-0.4148971645606039
-0.001374800035810206,-0.9991050543110399,-0.4169268908962733
-0.001374440035810206,-1.001797521826663,-0.4206480558450033
-0.001374080035810206,-1.000114729629398,-0.4226777821806736
-0.001373720035810206,-1.001797521826663,-0.4233543576258971
-0.001373360035810206,-1.001797521826663,-0.4253840839615674
-0.001373000035810206,-1.00146096338721,-0.428428673465073
-0.001372640035810206,-0.9994416127504928,-0.430796687523355
-0.001372280035810206,-0.9997781711899461,-0.4324881261364149
-0.001371920035810206,-1.000787846508304,-0.4351944279173074
-0.001371560035810206,-1.000114729629398,-0.4355327156399192
-0.001371200035810206,-1.001124404947757,-0.4375624419755895
-0.001370840035810206,-1.000787846508304,-0.4399304560338716
-0.001370480035810206,-0.9991050543110399,-0.4409453192017068
-0.001370120035810206,-1.000114729629398,-0.4433133332599889
-0.001369760035810206,-0.9997781711899448,-0.4453430595956605
-0.001369400035810206,-0.9980953789926822,-0.4480493613765518
-0.001369040035810206,-0.9987684958715871,-0.449402512267
-0.001368680035810206,-0.9994416127504928,-0.4514322386026703
-0.001368320035810206,-1.000451288068851,-0.4527853894931172
-0.001367960035810206,-1.001124404947757,-0.4541385403835641
-0.001367600035810206,-1.00146096338721,-0.4568448421644579
-0.001367240035810206,-1.00146096338721,-0.458874568500129
-0.001366880035810206,-1.000787846508304,-0.4605660071131861
-0.001366520035810206,-1.000451288068851,-0.4619191580036338
-0.001366160035810206,-1.00146096338721,-0.4642871720619159
-0.001365800035810206,-1.002807197145021,-0.4649637475071393
-0.001365440035810206,-1.000114729629398,-0.4673317615654214
-0.001365080035810206,-1.00146096338721,-0.4710529265141504
-0.001364720035810206,-1.000787846508304,-0.4720677896819861
-0.001364360035810206,-1.00146096338721,-0.4734209405724318
-0.001364000035810206,-0.9980953789926814,-0.4754506669081028
-0.001363640035810206,-0.9997781711899456,-0.4781569686889966
-0.001363280035810206,-0.9997781711899456,-0.4805249827472787
-0.001362920035810206,-1.000114729629398,-0.4812015581925022
-0.001362560035810206,-1.001124404947757,-0.4832312845281725
-0.001362200035810206,-1.000787846508304,-0.4842461476960087
-0.001361840035810206,-1.000114729629399,-0.4866141617542887
-0.001361480035810206,-1.001124404947757,-0.4889821758125719
-0.001361120035810206,-0.9997781711899456,-0.4903353267030188
